Data Analysis Replication Assignment
…
Replications/Reanalysis

Analysis with PC1, generating and averaging models.

When setting up the global model, I attempted to use lmer() where ID nested in site was the random effect. However, I kept having issues trying to run the model that way. This was consistent for the other models I attempted to run for the other analysis mentioned in the paper (like when I was trying to replicate figure 2, for example). To remedy this I tried using just ID for the random effect and it still would not run. I am not sure how site and ID variable were handled by the authors for them to be incoporated into the models properly.So for the following section I ran the global model using the lm() with no random effects. The coeffecients may be much different as this is not accounting for resampling of individuals in the dataset. In addition, not all of the interactions used in the original analysis are specified in the paper. My reanalysis will not have the same number of models generated for this reason.

Step 1. Setting up global model for model generation and averaging.

# The paper mentioned not including rows with NAs so I removed them and selected for the variables needed for this analysis. 
d.mod.build <- drop_na(d) %>%
  select(ID, site, livestock, idistance, year, age, sex, rep, pca1)
d.mod.build

## # A tibble: 115 x 9
##    ID    site  livestock idistance  year age   sex   rep     pca1
##    <chr> <chr> <chr>         <dbl> <dbl> <chr> <chr> <chr>  <dbl>
##  1 6164  AM1   high           3.39  2015 A     M     Y      0.787
##  2 D234  AM1   high           4.95  2016 A     M     N     -0.526
##  3 D235  AM1   high           6.77  2016 A     M     N      0.334
##  4 D201  AM1   high           5.97  2015 SA    F     N     -0.216
##  5 D202  AM1   high           2.33  2015 A     F     Y      2.02 
##  6 D203  AM1   high           3.18  2015 SA    F     N     -0.467
##  7 SP2   AM1   high           4.43  2015 A     M     Y      0.480
##  8 D208  AM1   high           4.87  2015 A     F     Y      0.448
##  9 D209  AM1   high           5.81  2015 A     M     Y     -1.65 
## 10 D237  AM1   high           5.12  2016 A     F     N      0.544
## #  with 105 more rows
…
